<?xml version="1.0" encoding="utf-8"?>
<!-- Generated by IcoMoon.io -->
<!DOCTYPE svg PUBLIC "-//W3C//DTD SVG 1.1//EN" "http://www.w3.org/Graphics/SVG/1.1/DTD/svg11.dtd">
<svg version="1.1" xmlns="http://www.w3.org/2000/svg" xmlns:xlink="http://www.w3.org/1999/xlink" width="36" height="32" viewBox="0 0 36 32">
	<path d="M30.699 3.558c0.719 0 1.301 0.583 1.301 1.301v22.281c0 0.719-0.583 1.301-1.301 1.301s-1.301-0.583-1.301-1.301l0-22.281c0-0.719 0.582-1.301 1.301-1.301zM6.59 4.251l6.438 0.011 5.195-0.011 6.438 0.011c0.719-0.003 1.371 0.285 1.844 0.754s0.767 1.119 0.77 1.837c0.006 1.437-1.154 2.608-2.591 2.614l-6.438-0.011-5.195 0.011-6.438-0.011c-0.719 0.003-1.371-0.285-1.844-0.754s-0.768-1.119-0.77-1.837c-0.006-1.438 1.154-2.608 2.591-2.614zM20.359 18.404l-1.199 0.011-2.161-0.011c-0.719 0.003-1.371-0.285-1.844-0.754s-0.767-1.119-0.77-1.837c-0.006-1.437 1.154-2.608 2.591-2.614l2.161 0.011 1.199-0.011 4.324 0.011c0.719-0.003 1.371 0.285 1.844 0.754s0.767 1.119 0.77 1.837c0.006 1.437-1.154 2.608-2.591 2.614l-4.324-0.011zM11.096 22.146l4.758 0.011 2.369-0.011 6.438 0.011c0.719-0.003 1.371 0.285 1.844 0.754s0.767 1.119 0.77 1.837c0.006 1.437-1.154 2.608-2.591 2.614l-6.438-0.011-2.369 0.011-4.758-0.011c-0.719 0.003-1.371-0.285-1.844-0.754s-0.767-1.119-0.77-1.837c-0.006-1.437 1.154-2.607 2.591-2.614z" fill="#000000"></path>
</svg>
