<?xml version="1.0" encoding="utf-8"?>
<!-- Generated by IcoMoon.io -->
<!DOCTYPE svg PUBLIC "-//W3C//DTD SVG 1.1//EN" "http://www.w3.org/Graphics/SVG/1.1/DTD/svg11.dtd">
<svg version="1.1" xmlns="http://www.w3.org/2000/svg" xmlns:xlink="http://www.w3.org/1999/xlink" width="42" height="32" viewBox="0 0 42 32">
	<path d="M27.122 31.952v-3.324h-6.369v-8.7c-0.499-0.133-1.012-0.252-1.549-0.348 1.241-1.328 2.18-3.404 3.145-5.863 0.559-1.425 0.705-7.090 0.388-8.218-1.070-3.808-3.771-5.469-6.937-5.47h-0.007c-3.168 0.001-5.873 1.667-6.941 5.482-0.315 1.123-0.168 6.788 0.393 8.216 0.974 2.471 1.899 4.546 3.134 5.867-3.354 0.873-6.479 2.55-8.428 3.762-2.862 1.78-3.951 4.731-3.951 6.679v1.936l27.122-0.019zM35.193 14.188h-5.026v6.37h-6.369v5.025h6.369v6.369h5.026v-6.369l6.369 0v-5.026h-6.369z" fill="#000000"></path>
</svg>
