<?xml version="1.0" encoding="utf-8"?>
<!-- Generated by IcoMoon.io -->
<!DOCTYPE svg PUBLIC "-//W3C//DTD SVG 1.1//EN" "http://www.w3.org/Graphics/SVG/1.1/DTD/svg11.dtd">
<svg version="1.1" xmlns="http://www.w3.org/2000/svg" xmlns:xlink="http://www.w3.org/1999/xlink" width="32" height="32" viewBox="0 0 32 32">
	<path d="M15.999 0c-8.835 0-15.999 7.163-15.999 15.999s7.164 16.001 15.999 16.001c8.838 0 16.001-7.164 16.001-16.001s-7.163-15.999-16.001-15.999zM13.666 13.391v-3.865h4.665v3.865h2.902l-5.236 5.665-5.236-5.665h2.905zM24.194 21.879h-16.39v-1.365h16.39v1.365z" fill="#000000"></path>
</svg>
