<?xml version="1.0" encoding="utf-8"?>
<!-- Generated by IcoMoon.io -->
<!DOCTYPE svg PUBLIC "-//W3C//DTD SVG 1.1//EN" "http://www.w3.org/Graphics/SVG/1.1/DTD/svg11.dtd">
<svg version="1.1" xmlns="http://www.w3.org/2000/svg" xmlns:xlink="http://www.w3.org/1999/xlink" width="32" height="32" viewBox="0 0 32 32">
	<path d="M16 0c-8.837 0-16 7.163-16 15.999 0 8.837 7.163 16.001 16 16.001s16-7.163 16-16c0-8.836-7.163-16-16-16zM13.628 22.368l-5.6-5.599 2.393-2.396 3.208 3.206 7.944-7.946 2.395 2.395-10.34 10.341z" fill="#000000"></path>
</svg>
