<?xml version="1.0" encoding="utf-8"?>
<!-- Generator: Adobe Illustrator 17.1.0, SVG Export Plug-In . SVG Version: 6.00 Build 0)  -->
<!DOCTYPE svg PUBLIC "-//W3C//DTD SVG 1.1//EN" "http://www.w3.org/Graphics/SVG/1.1/DTD/svg11.dtd">
<svg version="1.1" id="Layer_1" xmlns="http://www.w3.org/2000/svg" xmlns:xlink="http://www.w3.org/1999/xlink" x="0px" y="0px"
	 viewBox="0 0 16 16" style="enable-background:new 0 0 16 16;" xml:space="preserve">
<path d="M11,0H2C0.9,0,0,0.9,0,2v6c0,1.1,0.9,2,2,2h1v3l4-3h4c1.1,0,2-0.9,2-2V2C13,0.9,12.1,0,11,0z"/>
<g>
	<path d="M14,3v1c0.55,0,1,0.45,1,1v6c0,0.55-0.45,1-1,1h-1h-1v1v1l-1.33-1l-1.33-1H7.67H7.31l-1.33,1H6h3l2.4,1.8L13,16v-2v-1h1
		c1.1,0,2-0.9,2-2V5C16,3.9,15.1,3,14,3z"/>
</g>
</svg>
