<?xml version="1.0" encoding="utf-8"?>
<!-- Generator: Adobe Illustrator 18.1.0, SVG Export Plug-In . SVG Version: 6.00 Build 0)  -->
<svg version="1.1" xmlns="http://www.w3.org/2000/svg" xmlns:xlink="http://www.w3.org/1999/xlink" x="0px" y="0px"
	 viewBox="0 0 26 26" style="enable-background:new 0 0 26 26;" xml:space="preserve">
<style type="text/css">
	.st0{fill:#525352;}
	.st1{fill:#010101;}
	.st2{fill:#1E4C9E;}
	.st3{fill:#6EA0D5;}
	.st4{fill:#1C4D9D;}
	.st5{fill:#E8EBF4;}
</style>
<g id="picker_copy">
	<path class="st1" d="M6.63,12.97c-0.02,0.4,0.12,0.81,0.43,1.11l9.72,9.58c0.58,0.57,1.51,0.56,2.08-0.02l0.09-0.09
		c0.57-0.58,0.56-1.51-0.02-2.08l-8.59-8.47l8.59-8.49c0.58-0.57,0.58-1.5,0.01-2.08l-0.09-0.09c-0.57-0.58-1.5-0.58-2.08-0.01
		l-9.7,9.59c-0.24,0.23-0.37,0.53-0.42,0.84c-0.01,0.03,0,0.05-0.01,0.08C6.64,12.89,6.63,12.93,6.63,12.97z"/>
</g>
<g id="color_icons">
</g>
</svg>
