<?xml version="1.0" encoding="utf-8"?>
<!-- Generated by IcoMoon.io -->
<!DOCTYPE svg PUBLIC "-//W3C//DTD SVG 1.1//EN" "http://www.w3.org/Graphics/SVG/1.1/DTD/svg11.dtd">
<svg version="1.1" xmlns="http://www.w3.org/2000/svg" xmlns:xlink="http://www.w3.org/1999/xlink" width="32" height="32" viewBox="0 0 32 32">
	<path d="M9.685 3.182l-8.389 5.478 5.801 4.645 8.458-5.223zM1.296 17.95l8.389 5.478 5.87-4.9-8.458-5.223zM15.556 18.528l5.87 4.9 8.389-5.478-5.801-4.645zM29.815 8.659l-8.389-5.478-5.87 4.9 8.458 5.223zM15.572 19.582l-5.887 4.885-2.519-1.645v1.843l8.406 5.042 8.407-5.042v-1.843l-2.519 1.645z" fill="#000000"></path>
</svg>
