<?xml version="1.0" encoding="utf-8"?>
<!-- Generated by IcoMoon.io -->
<!DOCTYPE svg PUBLIC "-//W3C//DTD SVG 1.1//EN" "http://www.w3.org/Graphics/SVG/1.1/DTD/svg11.dtd">
<svg version="1.1" xmlns="http://www.w3.org/2000/svg" xmlns:xlink="http://www.w3.org/1999/xlink" width="24" height="32" viewBox="0 0 24 32">
	<path d="M23.449 4.857l-4.929-4.857h-18.488l0.018 30.894c0 0.611 0.494 1.106 1.105 1.106h21.207c0.611 0 1.105-0.495 1.105-1.106l-0.019-26.037zM5.127 7.217h4.991c0.54 0 0.98 0.439 0.98 0.981 0 0.539-0.44 0.98-0.98 0.98l-4.991-0.001c-0.541 0-0.981-0.439-0.981-0.98s0.44-0.98 0.981-0.98zM18.584 24.534h-13.457c-0.541 0-0.981-0.439-0.981-0.98s0.439-0.98 0.981-0.98h13.457c0.541 0 0.981 0.439 0.981 0.98s-0.44 0.98-0.981 0.98zM18.584 19.504h-13.457c-0.541 0-0.981-0.439-0.981-0.98s0.439-0.98 0.981-0.98h13.457c0.541 0 0.981 0.439 0.981 0.98s-0.44 0.98-0.981 0.98zM18.584 14.614h-13.457c-0.541 0-0.981-0.439-0.981-0.98s0.439-0.98 0.981-0.98h13.457c0.541 0 0.981 0.44 0.981 0.98s-0.44 0.98-0.981 0.98z" fill="#000000"></path>
</svg>
