<?xml version="1.0" encoding="utf-8"?>
<!-- Generated by IcoMoon.io -->
<!DOCTYPE svg PUBLIC "-//W3C//DTD SVG 1.1//EN" "http://www.w3.org/Graphics/SVG/1.1/DTD/svg11.dtd">
<svg version="1.1" xmlns="http://www.w3.org/2000/svg" xmlns:xlink="http://www.w3.org/1999/xlink" width="25" height="32" viewBox="0 0 25 32">
	<path d="M25.099 12.018c0-1.243-1.021-1.768-2.413-0.342-0.987 1.009-13.638 14.848-16.387 17.956-1.332 1.506-0.992 2.368 0.24 2.368 1.23 0 16.958 0 17.45 0 1.11 0 1.11-1.174 1.11-1.174v-1.157c-0-0-0-16.97-0-17.65zM19.978 27.558c-0.382 0-4.817 0-5.145 0-0.551 0-0.388-0.378-0.244-0.52s5.118-5.587 5.25-5.715c0.399-0.385 0.503-0.093 0.503 0.091s0 5.646 0 5.646 0.039 0.499-0.365 0.499zM4.55 22.268v-2.176h6.535c0.978-1.074 1.984-2.176 2.965-3.249l-9.5 0v-2.176h11.49c2.422-2.645 3.992-4.362 4.528-4.925v-9.743h-12.99l-7.491 6.882v19.629h5.161c0.885-0.985 2.499-2.749 3.857-4.243h-4.556zM4.55 8.999h12.177v2.176l-12.177-0v-2.176z" fill="#000000"></path>
</svg>
