<?xml version="1.0" encoding="utf-8"?>
<!-- Generator: Adobe Illustrator 16.2.1, SVG Export Plug-In . SVG Version: 6.00 Build 0)  -->
<!DOCTYPE svg PUBLIC "-//W3C//DTD SVG 1.1//EN" "http://www.w3.org/Graphics/SVG/1.1/DTD/svg11.dtd">
<svg version="1.1" id="Layer_1" xmlns="http://www.w3.org/2000/svg" xmlns:xlink="http://www.w3.org/1999/xlink" x="0px" y="0px"
	 width="32px" height="32px" viewBox="0 0 32 32" enable-background="new 0 0 32 32" xml:space="preserve">
<path d="M-0.104,31.98H24.99l-0.039-7.631l-2.932,1.355v3.58H2.66L2.662,8.654l6.714-0.014l0.008-6.031L22.02,2.585v2.822
	l2.901-1.285V0.934l0.011-1.016L7.675-0.079l-7.778,7.097V32V31.98z M13.936,21.29l14.156-8.406l1.447,2.39l-7.16,4.242l-0.04,1.715
	l9.438-5.343l-2.319-3.938c0.084-0.072,2.223-1.504,2.223-1.504l-2.184-3.37L11.556,18.054L8.396,22.09c0,0-1.801,1.592-1.755,1.58
	l2.282-0.994L13.936,21.29L13.936,21.29z"/>
</svg>
