<?xml version="1.0" encoding="utf-8"?>
<!-- Generated by IcoMoon.io -->
<!DOCTYPE svg PUBLIC "-//W3C//DTD SVG 1.1//EN" "http://www.w3.org/Graphics/SVG/1.1/DTD/svg11.dtd">
<svg version="1.1" xmlns="http://www.w3.org/2000/svg" xmlns:xlink="http://www.w3.org/1999/xlink" width="33" height="32" viewBox="0 0 33 32">
	<path d="M5.019 32.335v-16.134l-5.019 3.435v-5.903l16.639-14.069 7.070 6.039v-4.194h4.388v7.94l4.902 4.187v5.818l-4.64-3.373v16.254l-23.34-0.001z" fill="#000000"></path>
</svg>
