<?xml version="1.0" encoding="utf-8"?>
<!-- Generator: Adobe Illustrator 17.1.0, SVG Export Plug-In . SVG Version: 6.00 Build 0)  -->
<!DOCTYPE svg PUBLIC "-//W3C//DTD SVG 1.1//EN" "http://www.w3.org/Graphics/SVG/1.1/DTD/svg11.dtd">
<svg version="1.1" id="Layer_1" xmlns="http://www.w3.org/2000/svg" xmlns:xlink="http://www.w3.org/1999/xlink" x="0px" y="0px"
	 width="36px" height="36px" viewBox="0 0 36 36" style="enable-background:new 0 0 36 36;" xml:space="preserve">
<style type="text/css">
	.st0{fill:#231F20;}
</style>
<path class="st0" d="M18,3c8.3,0,15,6.7,15,15s-6.7,15-15,15S3,26.3,3,18S9.7,3,18,3 M18,0C8.1,0,0,8.1,0,18s8.1,18,18,18
	s18-8.1,18-18S27.9,0,18,0L18,0z"/>
<g>
	<rect x="15.6" y="24.5" class="st0" width="3.8" height="3.6"/>
	<path class="st0" d="M21.2,18.1c-1.1,1-2.1,1.9-2.1,3.8v0.5h-3.5v-0.6c0-3.2,1.6-4.7,2.8-5.8c0.8-0.8,1.5-1.4,1.5-2.3
		c0-1.6-1-2.4-3-2.4c-2.3,0-3.8,1.2-4.2,1.5l-0.3,0.3V9.4l0.1-0.1c1.5-0.9,3-1.4,4.7-1.4c5.8,0,6.3,4.5,6.3,5.9
		C23.5,16,22.4,17.1,21.2,18.1z"/>
</g>
</svg>
