<?xml version="1.0" encoding="utf-8"?>
<!-- Generated by IcoMoon.io -->
<!DOCTYPE svg PUBLIC "-//W3C//DTD SVG 1.1//EN" "http://www.w3.org/Graphics/SVG/1.1/DTD/svg11.dtd">
<svg version="1.1" xmlns="http://www.w3.org/2000/svg" xmlns:xlink="http://www.w3.org/1999/xlink" width="32" height="32" viewBox="0 0 32 32">
	<path d="M16 32c8.834 0 15.998-7.159 15.998-15.998 0.002-8.836-7.164-16.002-15.998-16.002-8.836 0-16 7.166-16 16 0 8.838 7.164 16 16 16zM7.543 16.009c-0.004-0.038-0.004-0.073 0-0.111 0.004-0.030 0.009-0.058 0.013-0.090 0.004-0.038 0.006-0.068 0.017-0.105 0.009-0.028 0.015-0.058 0.021-0.083 0.013-0.038 0.021-0.073 0.038-0.107 0.004-0.011 0.004-0.023 0.009-0.030 0.009-0.021 0.021-0.041 0.030-0.053 0.011-0.034 0.026-0.064 0.045-0.1 0.019-0.026 0.038-0.055 0.053-0.085 0.019-0.021 0.038-0.051 0.055-0.075 0.021-0.032 0.043-0.058 0.073-0.087 0.009-0.013 0.023-0.030 0.036-0.041l6.355-6.357c0.269-0.265 0.614-0.395 0.96-0.395 0.35 0 0.7 0.128 0.962 0.393 0.529 0.531 0.529 1.389 0 1.922l-4.036 4.038h12.572c0.378 0 0.719 0.149 0.96 0.397 0.245 0.245 0.397 0.585 0.397 0.958 0 0.284-0.087 0.542-0.233 0.762-0.243 0.361-0.657 0.597-1.124 0.597l-12.572 0.002 4.036 4.034c0.529 0.533 0.529 1.389 0 1.922-0.531 0.533-1.389 0.533-1.922 0l-6.351-6.357c-0.015-0.011-0.023-0.021-0.034-0.036-0.032-0.030-0.058-0.060-0.079-0.092-0.017-0.021-0.036-0.045-0.051-0.068-0.021-0.030-0.043-0.060-0.060-0.094-0.013-0.030-0.030-0.058-0.043-0.081-0.006-0.026-0.021-0.045-0.030-0.062-0.004-0.017-0.004-0.032-0.011-0.041-0.015-0.028-0.021-0.053-0.030-0.085-0.013-0.036-0.019-0.073-0.030-0.109-0.008-0.026-0.008-0.053-0.013-0.083-0.006-0.032-0.015-0.073-0.015-0.113-0.004-0.028 0-0.055 0-0.085z" fill="#000000"></path>
</svg>
