<?xml version="1.0" encoding="utf-8"?>
<!-- Generated by IcoMoon.io -->
<!DOCTYPE svg PUBLIC "-//W3C//DTD SVG 1.1//EN" "http://www.w3.org/Graphics/SVG/1.1/DTD/svg11.dtd">
<svg version="1.1" xmlns="http://www.w3.org/2000/svg" xmlns:xlink="http://www.w3.org/1999/xlink" width="32" height="32" viewBox="0 0 32 32">
	<path d="M32 17.744v-3.641l-4.412-1.441-1.040-2.511 2-4.231-2.575-2.575-4.139 2.102-2.511-1.040-1.578-4.406h-3.641l-0.168 0.515-1.273 3.898-2.51 1.040-4.232-1.999-2.575 2.575 2.101 4.139-1.039 2.51-4.407 1.578v3.642l4.413 1.441 1.040 2.511-1.999 4.231 2.574 2.575 4.139-2.102 2.511 1.040 1.578 4.406h3.641l0.168-0.514 1.273-3.898 2.511-1.040 4.231 2 2.575-2.576-0.245-0.483-1.857-3.656 1.040-2.511 4.406-1.578zM16 21.099c-2.816 0-5.099-2.283-5.099-5.099s2.283-5.099 5.099-5.099c2.816 0 5.099 2.283 5.099 5.099s-2.283 5.099-5.099 5.099z" fill="#000000"></path>
</svg>
