<?xml version="1.0" encoding="utf-8"?>
<!-- Generated by IcoMoon.io -->
<!DOCTYPE svg PUBLIC "-//W3C//DTD SVG 1.1//EN" "http://www.w3.org/Graphics/SVG/1.1/DTD/svg11.dtd">
<svg version="1.1" xmlns="http://www.w3.org/2000/svg" xmlns:xlink="http://www.w3.org/1999/xlink" width="19" height="32" viewBox="0 0 19 32">
	<path d="M9.594 1.28c-5.079 0-9.199 4.122-9.199 9.201 0 8.781 9.199 20.239 9.199 20.239s9.201-11.458 9.201-20.239c0-5.079-4.118-9.201-9.201-9.201zM9.594 15.558c-2.744 0-4.968-2.224-4.968-4.968s2.224-4.969 4.968-4.969 4.969 2.228 4.969 4.969-2.223 4.968-4.969 4.968z" fill="#000000"></path>
</svg>
