<?xml version="1.0" encoding="utf-8"?>
<!-- Generated by IcoMoon.io -->
<!DOCTYPE svg PUBLIC "-//W3C//DTD SVG 1.1//EN" "http://www.w3.org/Graphics/SVG/1.1/DTD/svg11.dtd">
<svg version="1.1" xmlns="http://www.w3.org/2000/svg" xmlns:xlink="http://www.w3.org/1999/xlink" width="32" height="32" viewBox="0 0 32 32">
	<path d="M27.294-0.001h-22.964c-2.629 0-4.465 1.836-4.465 4.465v23.070c0 2.629 1.836 4.465 4.465 4.465h22.964c2.629 0 4.465-1.836 4.465-4.465l-0-23.070c0-2.628-1.836-4.465-4.465-4.465zM8.322 26.81h-1.344v-1.344h1.344v1.344zM8.322 24.122h-1.344v-1.344h1.344v1.344zM8.322 21.434h-1.344v-1.344h1.344v1.344zM8.322 18.746h-1.344v-1.344h1.344v1.344zM15.239 26.81h-1.344v-1.344h1.344v1.344zM15.239 24.123h-1.344v-1.344h1.344v1.344zM15.239 21.435h-1.344v-1.344h1.344v1.344zM15.239 18.726h-1.344v-1.344h1.344v1.344zM17.906 26.81h-1.344v-1.344h1.344v1.344zM17.906 24.123h-1.344v-1.344h1.344v1.344zM17.906 21.435h-1.344v-1.344h1.344v1.344zM17.906 18.726h-1.344v-1.344h1.344v1.344zM25.143 27.023h-1.344v-1.344h1.344v1.344zM25.143 24.294h-1.344v-1.344h1.344v1.344zM25.143 21.627h-1.344v-1.344h1.344v1.344zM29.845 27.534c0 1.574-0.978 2.551-2.551 2.551h-0.704l0-11.927h-4.238v11.927h-2.813v-15.040h-1.236v-3.047h-1.188v-3.009h-0.586v-3.047l-1.236-0v3.047h-0.586v3.009h-1.188v3.047h-1.236v15.040l-2.495 0v-14.403h-0.329v-0.54h-0.519v-1.27h-0.498v-0.6h-0.303v-0.568h-0.94v0.568h-0.303v0.6l-0.498-0v1.27h-0.519v0.54h-0.329v14.403l-1.22 0c-1.574 0-2.551-0.978-2.551-2.551v-23.070c0-1.573 0.978-2.551 2.551-2.551h22.964c1.574 0 2.551 0.978 2.551 2.551l-0 23.070z" fill="#000000"></path>
</svg>
