<?xml version="1.0" encoding="utf-8"?>
<!-- Generated by IcoMoon.io -->
<!DOCTYPE svg PUBLIC "-//W3C//DTD SVG 1.1//EN" "http://www.w3.org/Graphics/SVG/1.1/DTD/svg11.dtd">
<svg version="1.1" xmlns="http://www.w3.org/2000/svg" xmlns:xlink="http://www.w3.org/1999/xlink" width="37" height="32" viewBox="0 0 37 32">
	<path d="M26.875 29.008l0.012-12.732-0.012-5.945 0.012-7.366c-0.007-1.645-1.345-2.973-2.99-2.966-0.822 0.003-1.566 0.34-2.102 0.881-0.537 0.542-0.867 1.287-0.863 2.11l-0.013 7.367 0.013 5.945-0.013 12.731c0.008 1.645 1.346 2.973 2.991 2.966 0.822-0.004 1.566-0.34 2.102-0.882 0.536-0.54 0.866-1.286 0.863-2.109z" fill="#000000"></path>
	<path d="M5.957 29.008l0.013-2.473-0.013-1.372 0.013-10.313c-0.008-1.644-1.347-2.972-2.991-2.965-0.822 0.003-1.566 0.34-2.103 0.882s-0.867 1.286-0.863 2.109l-0.013 9.957v0.403l0.013 1.327-0.013 2.387v0.090c0.011 1.643 1.348 2.968 2.992 2.96 0.822-0.003 1.566-0.34 2.102-0.881 0.537-0.542 0.867-1.288 0.864-2.111z" fill="#000000"></path>
	<path d="M16.416 29.008l0.012-5.444-0.012-8.076 0.012-7.366c-0.008-1.645-1.346-2.973-2.991-2.966-0.822 0.004-1.566 0.34-2.103 0.882s-0.867 1.286-0.863 2.109l-0.012 7.367 0.012 8.076-0.013 5.444c0.008 1.645 1.347 2.973 2.992 2.966 0.822-0.004 1.566-0.34 2.102-0.881 0.537-0.542 0.867-1.286 0.864-2.11z" fill="#000000"></path>
	<path d="M34.355 13.808c-0.821 0.004-1.566 0.341-2.102 0.882-0.537 0.542-0.867 1.287-0.863 2.11l-0.012-1.284 0.012 8.076-0.013 5.444c0.008 1.645 1.347 2.973 2.992 2.966 0.821-0.004 1.566-0.34 2.102-0.881 0.538-0.542 0.867-1.287 0.864-2.11l0.013-5.444-0.011-6.889c-0.062-1.599-1.37-2.874-2.981-2.868z" fill="#000000"></path>
	<path d="M37.333 15.489l0.002 1.186c0.001 0.034 0.011 0.064 0.011 0.099l-0.013-1.285z" fill="#000000"></path>
</svg>
