<?xml version="1.0" encoding="utf-8"?>
<!-- Generator: Adobe Illustrator 18.1.0, SVG Export Plug-In . SVG Version: 6.00 Build 0)  -->
<svg version="1.1" xmlns="http://www.w3.org/2000/svg" xmlns:xlink="http://www.w3.org/1999/xlink" x="0px" y="0px"
	 viewBox="0 0 26 26" style="enable-background:new 0 0 26 26;" xml:space="preserve">
<style type="text/css">
	.st0{fill:#525352;}
	.st1{fill:#010101;}
	.st2{fill:#1E4C9E;}
	.st3{fill:#6EA0D5;}
	.st4{fill:#1C4D9D;}
	.st5{fill:#E8EBF4;}
	.st6{display:none;fill:#010101;}
	.st7{display:none;}
	.st8{display:inline;fill:#010101;}
</style>
<g id="picker_copy">
	<path class="st1" d="M13,1.5C6.65,1.5,1.5,6.65,1.5,13c0,6.35,5.15,11.5,11.5,11.5S24.5,19.35,24.5,13C24.5,6.65,19.35,1.5,13,1.5z
		 M18.77,15H7.23c-0.85,0-1.54-1.15-1.54-2s0.7-2,1.54-2h11.54c0.85,0,1.54,1.15,1.54,2S19.62,15,18.77,15z"/>
</g>
<g id="color_icons">
</g>
</svg>
