<?xml version="1.0" encoding="utf-8"?>
<!-- Generated by IcoMoon.io -->
<!DOCTYPE svg PUBLIC "-//W3C//DTD SVG 1.1//EN" "http://www.w3.org/Graphics/SVG/1.1/DTD/svg11.dtd">
<svg version="1.1" xmlns="http://www.w3.org/2000/svg" xmlns:xlink="http://www.w3.org/1999/xlink" width="29" height="32" viewBox="0 0 29 32">
	<path d="M-0.021 19.651c0.194-0.988 0.957-5.395 1.138-6.128 0.344-1.391 1.113-0.323 1.113-0.323l1.54 2.596c0.509-0.728 1.15-1.367 1.912-1.88 1.624-1.090 3.576-1.486 5.498-1.11s3.58 1.481 4.671 3.104c1.092 1.625 1.486 3.576 1.109 5.497-0.376 1.919-1.479 3.58-3.104 4.671-0.258 0.174-0.562 0.226-0.846 0.171s-0.545-0.219-0.718-0.477c-0.348-0.517-0.21-1.217 0.307-1.564 1.124-0.755 1.888-1.903 2.148-3.234 0.261-1.329-0.013-2.681-0.768-3.808-0.756-1.122-1.905-1.886-3.234-2.146s-2.682 0.013-3.805 0.766c-0.834 0.563-1.467 1.341-1.846 2.248l2.237 2.209c0 0 0.538 0.7-0.619 0.729-1.934 0.049-5.697 0.262-5.697 0.262s-1.316-0.162-1.037-1.583zM7.078 28.969h18.764l0-17.459c-0.040-1.681-1.429-1.811-1.854-1.811h-4.625c-0.347 0-0.629-0.282-0.629-0.629l-0-4.146 0-0.040c0.002-0.26 0.006-0.95-0.448-1.407-0.294-0.296-0.741-0.447-1.326-0.447h-9.646v6.172c0.002 0.069 0.001 0.467-0.293 0.779-0.231 0.245-0.57 0.369-1.009 0.369-0.474 0-0.835-0.131-1.073-0.388-0.283-0.307-0.282-0.687-0.279-0.761v-7.887c-0-0.761 0.6-1.313 1.426-1.313h11.585c1.178 0 2.519 0.611 3.495 1.591l6.11 5.762c0.894 0.895 1.595 2.586 1.595 3.85v19.369c0 0.788-0.64 1.429-1.426 1.429l-20.714-0c-0.781 0-1.417-0.632-1.426-1.412-0.015-0.115-0.059-0.645 0.303-1.075 0.305-0.361 0.799-0.545 1.47-0.545z" fill="#000000"></path>
</svg>
