<?xml version="1.0" encoding="utf-8"?>
<!-- Generator: Adobe Illustrator 16.2.1, SVG Export Plug-In . SVG Version: 6.00 Build 0)  -->
<!DOCTYPE svg PUBLIC "-//W3C//DTD SVG 1.1//EN" "http://www.w3.org/Graphics/SVG/1.1/DTD/svg11.dtd">
<svg version="1.1" id="Layer_1" xmlns="http://www.w3.org/2000/svg" xmlns:xlink="http://www.w3.org/1999/xlink" x="0px" y="0px"
	 width="612px" height="792px" viewBox="0 0 612 792" enable-background="new 0 0 612 792" xml:space="preserve">
<g>
	<path fill="#999999" d="M612,762.564V29.436H175.652L0,204.929v557.636H612z M548.416,93.021v605.959H63.584V231.316l5.246-5.246
		h131.938V94.133l33.064-1.271h314.584V93.021z"/>
	<path fill="#999999" d="M337.633,296.967c-4.45,0-8.583,1.908-11.444,4.769c-2.861,3.02-4.77,6.994-4.77,11.604v40.376v32.587
		v69.784c0,9.062,7.312,16.214,16.373,16.214c4.451,0,8.584-1.907,11.445-4.769c3.021-3.021,4.769-6.994,4.769-11.604v-69.784
		v-32.587v-40.376C354.006,304.279,346.694,296.967,337.633,296.967z"/>
	<path fill="#999999" d="M223.022,362.141c-4.451,0-8.584,1.908-11.445,4.769c-2.861,3.02-4.769,6.994-4.769,11.604v56.431v7.472
		v13.512c0,9.061,7.312,16.214,16.373,16.214c4.451,0,8.584-1.908,11.445-4.77c3.02-3.02,4.769-6.994,4.769-11.604v-13.512v-7.472
		v-56.431C239.396,369.294,232.083,361.982,223.022,362.141z"/>
	<path fill="#999999" d="M280.248,325.262c-4.451,0-8.583,1.908-11.445,4.769c-3.021,3.02-4.769,6.994-4.769,11.604v40.376v44.191
		v29.885c0,9.062,7.312,16.215,16.373,16.215c4.451,0,8.584-1.908,11.445-4.77c2.861-3.02,4.769-6.994,4.769-11.604v-29.885v-44.191
		v-40.376C296.621,332.416,289.309,325.262,280.248,325.262z"/>
	<path fill="#999999" d="M411.232,388.529c-0.159-8.902-7.472-16.055-16.373-15.896c-4.451,0-8.584,1.907-11.445,4.769
		c-2.861,3.021-4.769,6.995-4.769,11.604v-6.995v44.191v29.885c0,9.062,7.312,16.215,16.373,16.215c4.45,0,8.584-1.908,11.445-4.77
		c2.86-3.021,4.769-6.994,4.769-11.604v-29.885V388.529z"/>
	<path fill="#999999" d="M411.232,381.853v6.676c0,0.159,0,0.159,0,0.318V381.853z"/>
</g>
</svg>
