<?xml version="1.0" encoding="utf-8"?>
<!-- Generator: Adobe Illustrator 18.0.0, SVG Export Plug-In . SVG Version: 6.00 Build 0)  -->
<!DOCTYPE svg PUBLIC "-//W3C//DTD SVG 1.1 Tiny//EN" "http://www.w3.org/Graphics/SVG/1.1/DTD/svg11-tiny.dtd">
<svg version="1.1" baseProfile="tiny" id="Layer_1" xmlns="http://www.w3.org/2000/svg" xmlns:xlink="http://www.w3.org/1999/xlink"
	 x="0px" y="0px" viewBox="0 0 32 32" xml:space="preserve">
<g>
	<path d="M25,17.6v-7.4C25,9,24,9,23.5,9H22V7.3C22,6,20.9,6,20.6,6l-6.3,0c-0.2,0-0.3-0.2-0.4-0.5C13.7,4.2,12.8,4,12.4,4H4.1
		C3.4,4,2,4,2,5.1v16.6l0,0.1C2.2,22.6,2.9,24,4.5,24H5h1h12.9c0.3,2.9,2.8,5.3,5.8,5.3c3.2,0,5.8-2.6,5.8-5.8
		C30.5,20.3,28.1,17.7,25,17.6z M4.5,23c-1,0-1.4-1.1-1.5-1.4L3,5.1C3.1,5,3.9,5,4.1,5h8.3c0.1,0,0.4,0,0.5,0.6
		c0.2,1.1,1,1.4,1.4,1.4h6.3C20.9,7,21,7,21,7c0,0,0,0,0,0.2V9H6.9C6.4,9,5,9,5,10.2V23H4.5z M6,10.1c0,0,0.2-0.1,0.9-0.1h16.6
		c0.1,0,0.4,0,0.5,0c0,0,0,0,0,0.2v7.4c-2.8,0.3-4.9,2.6-5.1,5.4H6L6,10.1z M24.7,28.2c-2.4,0-4.4-1.8-4.7-4.2h0v-1h0
		c0.2-2.4,2.2-4.4,4.7-4.4c2.6,0,4.8,2.1,4.8,4.8S27.3,28.2,24.7,28.2z"/>
	<path d="M27,23h-2v-2c0-0.3-0.2-0.5-0.5-0.5S24,20.7,24,21v2h-2c-0.3,0-0.5,0.2-0.5,0.5S21.7,24,22,24h2v2c0,0.3,0.2,0.5,0.5,0.5
		S25,26.3,25,26v-2h2c0.3,0,0.5-0.2,0.5-0.5S27.3,23,27,23z"/>
</g>
</svg>
