<?xml version="1.0" encoding="utf-8"?>
<!-- Generator: Adobe Illustrator 18.0.0, SVG Export Plug-In . SVG Version: 6.00 Build 0)  -->
<!DOCTYPE svg PUBLIC "-//W3C//DTD SVG 1.1//EN" "http://www.w3.org/Graphics/SVG/1.1/DTD/svg11.dtd">
<svg version="1.1" id="Layer_1" xmlns="http://www.w3.org/2000/svg" xmlns:xlink="http://www.w3.org/1999/xlink" x="0px" y="0px"
	 viewBox="0 0 26 26" style="enable-background:new 0 0 26 26;" xml:space="preserve">
<style type="text/css">
	.st0{fill:none;stroke:#000000;stroke-width:0.5;stroke-miterlimit:10;}
</style>
<g id="bold">
	<path d="M13.41,4.04c0.8,0,1.53,0.07,2.19,0.21c0.66,0.14,1.22,0.37,1.69,0.69c0.47,0.32,0.84,0.75,1.09,1.28
		c0.26,0.53,0.39,1.19,0.39,1.98c0,0.85-0.19,1.55-0.58,2.12c-0.38,0.56-0.95,1.03-1.71,1.39c1.04,0.3,1.81,0.82,2.32,1.56
		c0.51,0.75,0.76,1.64,0.76,2.69c0,0.85-0.16,1.58-0.49,2.2c-0.33,0.62-0.77,1.13-1.33,1.52c-0.56,0.39-1.19,0.68-1.91,0.87
		c-0.71,0.19-1.45,0.28-2.2,0.28H5.5V4.04H13.41z M12.93,10.84c0.66,0,1.2-0.16,1.62-0.47c0.42-0.31,0.64-0.82,0.64-1.53
		c0-0.39-0.07-0.71-0.21-0.97c-0.14-0.25-0.33-0.45-0.56-0.59C14.18,7.15,13.91,7.05,13.61,7c-0.31-0.05-0.62-0.08-0.95-0.08H9.19
		v3.93H12.93z M13.15,17.98c0.36,0,0.71-0.04,1.04-0.11c0.33-0.07,0.62-0.19,0.87-0.35c0.25-0.16,0.45-0.39,0.6-0.67
		c0.15-0.28,0.22-0.64,0.22-1.08c0-0.86-0.24-1.48-0.73-1.85c-0.49-0.37-1.13-0.55-1.93-0.55H9.19v4.61H13.15z"/>
</g>
</svg>
