<?xml version="1.0" encoding="utf-8"?>
<!-- Generator: Adobe Illustrator 18.1.1, SVG Export Plug-In . SVG Version: 6.00 Build 0)  -->
<svg version="1.1" xmlns="http://www.w3.org/2000/svg" xmlns:xlink="http://www.w3.org/1999/xlink" x="0px" y="0px"
	 viewBox="0 0 26 26" style="enable-background:new 0 0 26 26;" xml:space="preserve">
<style type="text/css">
	.st0{fill:#525352;}
	.st1{fill:#010101;}
	.st2{fill:#6EA0D5;}
	.st3{fill:#1E4C9E;}
	.st4{fill:#1C4D9D;}
	.st5{fill:#E8EBF4;}
	.st6{display:none;fill:#010101;}
	.st7{display:none;}
	.st8{display:inline;fill:#010101;}
</style>
<g id="picker_copy">
	<g>
		<path d="M19.16,15.32c-2.99,2.73-5.21,3.27-5.21,3.27c-1.57,0.54-3.75,0.52-5.03-0.35c-1.11-0.75-1.77-1.96-1.98-3.36
			c-0.01,0.01-0.03,0.02-0.04,0.02c-0.37,0.09-1.19,0.17-1.77,0c-0.58-0.17-1.1-0.86-0.3-0.84c0.65,0.02,1.67-0.27,2.04-0.38
			c0.05-1.44,0.54-2.98,1.49-4.37c1.37-2.02,3.5-3.6,5.44-3.6c1.84,0,4.64,4.41-4.95,8.62c0,0,0.45,3.18,3.38,3.18
			c2.43,0,3.98-1.06,5.84-2.61c1.32-1.1,3.32-3.61,4.46-5.07c-1.26-4.08-5.06-7.05-9.56-7.05c-5.52,0-10,4.48-10,10
			c0,5.52,4.48,10,10,10c5.52,0,10-4.48,10-10c0-0.57-0.05-1.14-0.14-1.68C21.79,12.46,20.26,14.32,19.16,15.32z"/>
		<path d="M14.37,6.99c-0.49-0.43-2.01,0.28-3.24,1.62c-1.23,1.34-1.95,2.62-2.21,4.25c1.34-0.56,2.43-1.14,3.94-2.63
			C14.3,8.81,14.91,7.45,14.37,6.99z"/>
	</g>
</g>
<g id="color_icons">
</g>
</svg>
