<?xml version="1.0" encoding="utf-8"?>
<!-- Generator: Adobe Illustrator 18.0.0, SVG Export Plug-In . SVG Version: 6.00 Build 0)  -->
<!DOCTYPE svg PUBLIC "-//W3C//DTD SVG 1.1 Tiny//EN" "http://www.w3.org/Graphics/SVG/1.1/DTD/svg11-tiny.dtd">
<svg version="1.1" baseProfile="tiny" id="Layer_1" xmlns="http://www.w3.org/2000/svg" xmlns:xlink="http://www.w3.org/1999/xlink"
	 x="0px" y="0px" viewBox="0 0 32 32" xml:space="preserve">
<path d="M31.1,3.7c-0.1-0.1-0.4-0.2-0.5-0.1L0.6,15.1c-0.2,0.1-0.3,0.3-0.3,0.5c0,0.2,0.1,0.4,0.3,0.5l8.4,3.8l0,8.7
	c0,0.2,0.1,0.4,0.4,0.5c0.1,0,0.1,0,0.2,0c0.2,0,0.3-0.1,0.4-0.2l3.6-4.7l1.7-1.8l9.5,4.3c0.1,0.1,0.3,0.1,0.4,0
	c0.1-0.1,0.2-0.2,0.3-0.3l5.9-22.1C31.3,4.1,31.2,3.9,31.1,3.7z M24.5,25.5l-8.8-3.9l3.3-5.8l-9.6,3.2l-7.3-3.3L29.9,5L24.5,25.5z"
	/>
</svg>
