<?xml version="1.0" encoding="utf-8"?>
<!-- Generator: Adobe Illustrator 18.1.1, SVG Export Plug-In . SVG Version: 6.00 Build 0)  -->
<svg version="1.1" xmlns="http://www.w3.org/2000/svg" xmlns:xlink="http://www.w3.org/1999/xlink" x="0px" y="0px"
	 viewBox="0 0 26 26" style="enable-background:new 0 0 26 26;" xml:space="preserve">
<style type="text/css">
	.st0{fill:#525352;}
	.st1{fill:#010101;}
	.st2{fill:#6EA0D5;}
	.st3{fill:#1E4C9E;}
	.st4{fill:#1C4D9D;}
	.st5{fill:#E8EBF4;}
	.st6{display:none;fill:#010101;}
	.st7{display:none;}
	.st8{display:inline;fill:#010101;}
</style>
<g id="picker_copy">
	<g>
		<path d="M25,23.15c0,0.76-0.62,1.38-1.38,1.38H2.38C1.62,24.54,1,23.92,1,23.15v-4.62c0-0.76,0.62-1.38,1.38-1.38h6.16
			C8.93,18.22,9.96,19,11.15,19h3.69c1.2,0,2.22-0.78,2.61-1.85h6.16c0.76,0,1.38,0.62,1.38,1.38V23.15z M19.46,9.77h-3.69v6.46
			c0,0.5-0.42,0.92-0.92,0.92h-3.69c-0.5,0-0.92-0.42-0.92-0.92V9.77H6.54c-0.37,0-0.71-0.23-0.85-0.58c-0.14-0.33-0.07-0.74,0.2-1
			l6.46-6.46c0.17-0.19,0.42-0.28,0.65-0.28s0.48,0.09,0.65,0.28l6.46,6.46c0.27,0.26,0.34,0.66,0.2,1
			C20.17,9.54,19.84,9.77,19.46,9.77z M18.54,20.85c-0.5,0-0.92,0.42-0.92,0.92c0,0.5,0.42,0.92,0.92,0.92
			c0.5,0,0.92-0.42,0.92-0.92C19.46,21.26,19.04,20.85,18.54,20.85z M22.23,20.85c-0.5,0-0.92,0.42-0.92,0.92
			c0,0.5,0.42,0.92,0.92,0.92c0.5,0,0.92-0.42,0.92-0.92C23.15,21.26,22.74,20.85,22.23,20.85z"/>
	</g>
</g>
<g id="color_icons">
</g>
</svg>
