<?xml version="1.0" encoding="utf-8"?>
<!-- Generated by IcoMoon.io -->
<!DOCTYPE svg PUBLIC "-//W3C//DTD SVG 1.1//EN" "http://www.w3.org/Graphics/SVG/1.1/DTD/svg11.dtd">
<svg version="1.1" xmlns="http://www.w3.org/2000/svg" xmlns:xlink="http://www.w3.org/1999/xlink" width="32" height="32" viewBox="0 0 32 32">
	<path d="M16.036 32c8.834-0.019 15.983-7.194 15.964-16.034-0.019-8.834-7.198-15.985-16.034-15.966s-15.985 7.2-15.966 16.036c0.019 8.838 7.198 15.983 16.036 15.964zM15.97 2.34c7.531-0.017 13.675 6.095 13.69 13.632 0.017 7.531-6.099 13.67-13.632 13.685-7.533 0.017-13.675-6.095-13.69-13.628-0.015-7.535 6.099-13.672 13.632-13.69zM7.77 15.264c-0.017 0.028-0.036 0.060-0.056 0.085-0.017 0.032-0.032 0.066-0.045 0.098-0.009 0.017-0.021 0.036-0.030 0.053-0.004 0.009-0.004 0.021-0.006 0.032-0.017 0.030-0.026 0.068-0.038 0.102-0.006 0.030-0.015 0.060-0.024 0.088-0.008 0.036-0.011 0.070-0.015 0.104-0.004 0.032-0.008 0.062-0.013 0.090-0.004 0.038-0.004 0.073 0 0.111 0 0.030-0.004 0.055 0 0.085 0 0.041 0.009 0.081 0.015 0.115 0.004 0.026 0.004 0.055 0.013 0.079 0.011 0.038 0.021 0.073 0.034 0.111 0.006 0.030 0.013 0.058 0.028 0.083 0.006 0.011 0.006 0.026 0.011 0.041 0.006 0.019 0.021 0.036 0.030 0.062 0.013 0.026 0.030 0.051 0.041 0.081 0.017 0.034 0.041 0.064 0.060 0.094 0.017 0.023 0.036 0.047 0.053 0.068 0.026 0.034 0.047 0.062 0.079 0.092 0.011 0.015 0.021 0.028 0.038 0.041l6.364 6.342c0.533 0.531 1.393 0.529 1.922-0.004 0.527-0.533 0.525-1.389-0.004-1.922l-4.049-4.028 12.572-0.026c0.467 0 0.881-0.239 1.122-0.599 0.145-0.22 0.233-0.48 0.233-0.762 0-0.373-0.154-0.713-0.399-0.958-0.241-0.247-0.585-0.397-0.96-0.395v0l-12.574 0.024 4.028-4.047c0.529-0.531 0.527-1.391-0-1.92-0.267-0.265-0.617-0.393-0.966-0.393-0.346 0-0.691 0.13-0.958 0.395l-6.34 6.372c-0.013 0.013-0.026 0.028-0.034 0.041-0.030 0.030-0.053 0.058-0.073 0.087-0.021 0.024-0.040 0.056-0.058 0.077z" fill="#000000"></path>
</svg>
