<?xml version="1.0" encoding="utf-8"?>
<!-- Generated by IcoMoon.io -->
<!DOCTYPE svg PUBLIC "-//W3C//DTD SVG 1.1//EN" "http://www.w3.org/Graphics/SVG/1.1/DTD/svg11.dtd">
<svg version="1.1" xmlns="http://www.w3.org/2000/svg" xmlns:xlink="http://www.w3.org/1999/xlink" width="41" height="32" viewBox="0 0 41 32">
	<path d="M36.49 9.229l-19.435 19.432c-0.287 0.292-0.769 0.292-1.061 0l-4.869-4.871c-0.292-0.292-0.771-0.767-1.063-1.059l-5.86-5.862c-0.29-0.29-0.29-0.764 0-1.061l4.871-4.869c0.29-0.292 0.767-0.292 1.061 0l5.862 5.862c0.29 0.287 0.769 0.287 1.061 0l13.46-13.458c0.287-0.292 0.767-0.295 1.066-0.005l4.901 4.836c0.292 0.285 0.292 0.762 0.005 1.054z" fill="#000000"></path>
</svg>
