<?xml version="1.0" encoding="utf-8"?>
<!-- Generated by IcoMoon.io -->
<!DOCTYPE svg PUBLIC "-//W3C//DTD SVG 1.1//EN" "http://www.w3.org/Graphics/SVG/1.1/DTD/svg11.dtd">
<svg version="1.1" xmlns="http://www.w3.org/2000/svg" xmlns:xlink="http://www.w3.org/1999/xlink" width="27" height="32" viewBox="0 0 27 32">
	<path d="M16.292 5.603l6.571 5.599 4.505-5.545-6.479-5.657zM10.563 26.285l10.897-13.453-6.469-5.647-11.254 13.645-2.542 8.015-1.314 3.155 2.815-1.66c0.083-0.055 7.867-4.054 7.867-4.054z" fill="#000000"></path>
</svg>
