<?xml version="1.0" encoding="utf-8"?>
<!-- Generated by IcoMoon.io -->
<!DOCTYPE svg PUBLIC "-//W3C//DTD SVG 1.1//EN" "http://www.w3.org/Graphics/SVG/1.1/DTD/svg11.dtd">
<svg version="1.1" xmlns="http://www.w3.org/2000/svg" xmlns:xlink="http://www.w3.org/1999/xlink" width="48" height="32" viewBox="0 0 48 32">
	<path d="M45.034 12.968c-2.071-2.108-4.837-3.302-7.79-3.362l-1.053-0.021-0.421-0.965c-2.303-5.28-7.506-8.691-13.256-8.691-7.944 0-14.432 6.463-14.462 14.406v0.019l0.001 0.019c0.004 0.056 0.006 0.109 0.006 0.161v1.392l-1.373 0.23c-3.875 0.649-6.687 3.971-6.687 7.898 0 3.61 3.7 8.019 8.019 8.019h13.068v-8.614l-6.433 0 9.471-9.654 9.471 9.654h-6.433v8.614h10.444l0.814-0.1c5.604-0.701 9.83-5.49 9.83-11.141-0-2.96-1.142-5.753-3.216-7.864z" fill="#000000"></path>
</svg>
