<?xml version="1.0" encoding="utf-8"?>
<!-- Generated by IcoMoon.io -->
<!DOCTYPE svg PUBLIC "-//W3C//DTD SVG 1.1//EN" "http://www.w3.org/Graphics/SVG/1.1/DTD/svg11.dtd">
<svg version="1.1" xmlns="http://www.w3.org/2000/svg" xmlns:xlink="http://www.w3.org/1999/xlink" width="33" height="32" viewBox="0 0 33 32">
	<path d="M16.257 14.37c-0.839-0.367-1.747-0.702-2.681-0.945 0.005-0.006 0.011-0.011 0.016-0.018 0.101-0.109 0.2-0.226 0.299-0.347 0.718-0.896 1.347-2.142 1.836-3.659 0-0.001 0-0.002 0.001-0.002 0.032-0.083 0.063-0.189 0.090-0.312 0.194-0.704 0.301-1.455 0.348-2.171 0.096-1.404-0.034-2.668-0.17-3.155-0.366-1.309-1.014-2.25-1.842-2.863-0.827-0.613-1.835-0.899-2.923-0.899 0 0 0 0-0.001 0-0.066 0-0.13 0.004-0.197 0.006-0.065-0.002-0.129-0.006-0.195-0.006-1.359 0-2.594 0.447-3.508 1.42-0.55 0.584-0.983 1.358-1.256 2.341-0.206 0.734-0.399 3.239 0.176 5.326 0.029 0.123 0.060 0.229 0.092 0.312 0.001 0.001 0.001 0.002 0.001 0.002 0.556 1.73 1.298 3.108 2.142 4.015 0.003 0.002 0.005 0.005 0.008 0.008-0.863 0.225-1.704 0.527-2.488 0.861-0.131 0.055-0.261 0.112-0.389 0.169-0.638 0.286-1.232 0.588-1.764 0.881-0.424 0.233-0.808 0.462-1.144 0.67-1.962 1.222-2.71 3.247-2.71 4.583v2.738l10.298-0.001 0.794-2.064c0.055-0.143 0.137-0.274 0.242-0.386l5.489-5.858c0.047-0.050 0.097-0.095 0.15-0.135l0.115-0.128c-0.269-0.13-0.545-0.26-0.832-0.385z" fill="#000000"></path>
	<path d="M30.562 13.815c0.068-0.102 0.126-0.208 0.179-0.315l2.047-2.438-4.269-3.585-2.467 2.938-7.543 8.192 0.020 0.019-5.287 6.018c0 0-1.784 5.385-1.811 5.443 0 0-0.275 0.524-0.526 1.024-0.026 0.321-0.168 0.615-0.394 0.84-0.012 0.035-0.015 0.056-0.002 0.048l2.028-1.101 4.88-2.428 5.999-6.792-0.017-0.017 6.514-7.075 1.892 1.594-5.287 6.184 0.641 0.623 6.173-6.757-2.77-2.415z" fill="#000000"></path>
</svg>
