<?xml version="1.0" encoding="utf-8"?>
<!-- Generator: Adobe Illustrator 17.1.0, SVG Export Plug-In . SVG Version: 6.00 Build 0)  -->
<!DOCTYPE svg PUBLIC "-//W3C//DTD SVG 1.1//EN" "http://www.w3.org/Graphics/SVG/1.1/DTD/svg11.dtd">
<svg version="1.1" id="Layer_1" xmlns="http://www.w3.org/2000/svg" xmlns:xlink="http://www.w3.org/1999/xlink" x="0px" y="0px"
	 viewBox="0 0 26 26" style="enable-background:new 0 0 26 26;" xml:space="preserve">
<style type="text/css">
	.st0{fill:#070707;}
</style>
<g>
	<g>
		<rect x="12.4" y="-0.5" transform="matrix(0.7071 0.7071 -0.7071 0.7071 13 -5.3848)" class="st0" width="1.2" height="27.1"/>
	</g>
	<g>
		<g>
			<path class="st0" d="M17.8,11.7c0.1,0.4,0.2,0.8,0.2,1.3c0,2.8-2.2,5-5,5c-0.4,0-0.9-0.1-1.3-0.2L9.5,20c1.1,0.5,2.2,0.8,3.5,0.8
				c5.5,0,10-6.2,10-7.8c0-0.8-0.9-2.4-2.4-4L17.8,11.7z"/>
		</g>
		<g>
			<path class="st0" d="M8,13c0-2.8,2.2-5,5-5c0.4,0,0.8,0.1,1.2,0.2l2.2-2.2c-1.1-0.5-2.2-0.8-3.4-0.8C7.5,5.2,3,11.3,3,13
				c0,0.7,0.9,2.4,2.4,4l2.8-2.8C8.1,13.8,8,13.4,8,13z"/>
		</g>
		<circle class="st0" cx="13" cy="13" r="2.1"/>
	</g>
</g>
</svg>
