<?xml version="1.0" encoding="utf-8"?>
<!-- Generated by IcoMoon.io -->
<!DOCTYPE svg PUBLIC "-//W3C//DTD SVG 1.1//EN" "http://www.w3.org/Graphics/SVG/1.1/DTD/svg11.dtd">
<svg version="1.1" xmlns="http://www.w3.org/2000/svg" xmlns:xlink="http://www.w3.org/1999/xlink" width="32" height="32" viewBox="0 0 32 32">
	<path d="M28.234 23.362c-0.488-0.303-1.049-0.636-1.669-0.977-0.852-0.47-1.817-0.956-2.854-1.409-1.224-0.535-2.548-1.024-3.912-1.379 0.008-0.009 0.015-0.017 0.023-0.026 1.226-1.322 2.305-3.329 3.113-5.842 0-0.001 0.001-0.002 0.001-0.004 0.048-0.122 0.093-0.277 0.134-0.455 0.84-3.043 0.558-6.697 0.259-7.768-0.535-1.909-1.479-3.281-2.686-4.175s-2.677-1.311-4.263-1.311c0 0 0 0-0 0-0.097 0-0.191 0.006-0.286 0.009-0.095-0.003-0.19-0.009-0.286-0.009v0 0c-1.983 0-3.784 0.651-5.117 2.072-0.8 0.852-1.431 1.982-1.832 3.414-0.3 1.071-0.581 4.724 0.259 7.768 0.042 0.178 0.086 0.333 0.134 0.455 0 0.001 0.001 0.002 0.001 0.004 0.81 2.521 1.893 4.533 3.124 5.855 0.004 0.004 0.008 0.009 0.011 0.013-1.259 0.328-2.485 0.768-3.629 1.255-0.191 0.081-0.379 0.164-0.565 0.247-0.93 0.417-1.796 0.858-2.571 1.285-0.62 0.342-1.181 0.674-1.669 0.977-2.865 1.781-3.955 4.734-3.955 6.683v1.937h32.188v-1.937c-0-1.949-1.090-4.902-3.954-6.684z" fill="#000000"></path>
</svg>
