<?xml version="1.0" encoding="utf-8"?>
<!-- Generated by IcoMoon.io -->
<!DOCTYPE svg PUBLIC "-//W3C//DTD SVG 1.1//EN" "http://www.w3.org/Graphics/SVG/1.1/DTD/svg11.dtd">
<svg version="1.1" xmlns="http://www.w3.org/2000/svg" xmlns:xlink="http://www.w3.org/1999/xlink" width="37" height="32" viewBox="0 0 37 32">
	<path d="M36.165 25.766l-13.96-23.426c-0.738-1.476-2.245-2.407-3.894-2.407-1.648 0-3.155 0.931-3.892 2.407l-13.959 23.426c-0.676 1.35-0.603 2.954 0.19 4.236 0.792 1.282 2.194 2.063 3.702 2.063h27.919c1.508 0 2.91-0.781 3.703-2.063s0.865-2.887 0.19-4.236zM18.414 28.701c-1.425 0-2.58-1.015-2.58-2.264 0-1.251 1.155-2.264 2.58-2.264s2.581 1.013 2.581 2.264c-0 1.25-1.155 2.264-2.581 2.264zM20.994 19.447c0 1.251-1.155 2.265-2.581 2.265s-2.58-1.014-2.58-2.265v-9.427c0-1.251 1.155-2.264 2.58-2.264s2.581 1.014 2.581 2.264v9.427z" fill="#000000"></path>
</svg>
