<?xml version="1.0" encoding="utf-8"?>
<!-- Generator: Adobe Illustrator 17.1.0, SVG Export Plug-In . SVG Version: 6.00 Build 0)  -->
<!DOCTYPE svg PUBLIC "-//W3C//DTD SVG 1.1//EN" "http://www.w3.org/Graphics/SVG/1.1/DTD/svg11.dtd">
<svg version="1.1" id="Layer_1" xmlns="http://www.w3.org/2000/svg" xmlns:xlink="http://www.w3.org/1999/xlink" x="0px" y="0px"
	 width="14px" height="14px" viewBox="0 0 14 14" style="enable-background:new 0 0 14 14;" xml:space="preserve">
<style type="text/css">
	.st0{fill:#B6B6B6;}
</style>
<path class="st0" d="M12.28,1.3c-1.74-1.74-4.56-1.74-6.3,0C4.56,2.73,4.3,4.87,5.19,6.55l-5,5c-0.25,0.25-0.25,0.67,0,0.92
	l0.85,0.85l0,0l0.07,0.07c0.25,0.25,0.67,0.25,0.92,0l0.53-0.52c0.13-0.13,0.33-0.13,0.46,0l0.94,0.94c0.25,0.25,0.67,0.25,0.92,0
	l0.64-0.65l-1.6-1.67l0.77-0.77l1.67,1.6l0.65-0.64c0.25-0.26,0.25-0.67,0-0.92L6.07,9.82c-0.13-0.13-0.13-0.33,0-0.46l0.96-0.97
	c1.69,0.9,3.82,0.64,5.24-0.78C14.02,5.87,14.02,3.05,12.28,1.3z M9.96,4.98c-0.75,0-1.36-0.61-1.36-1.36s0.61-1.36,1.36-1.36
	s1.36,0.61,1.36,1.36S10.71,4.98,9.96,4.98z"/>
</svg>
