<?xml version="1.0" encoding="utf-8"?>
<!-- Generated by IcoMoon.io -->
<!DOCTYPE svg PUBLIC "-//W3C//DTD SVG 1.1//EN" "http://www.w3.org/Graphics/SVG/1.1/DTD/svg11.dtd">
<svg version="1.1" xmlns="http://www.w3.org/2000/svg" xmlns:xlink="http://www.w3.org/1999/xlink" width="32" height="32" viewBox="0 0 32 32">
	<path d="M8.602 13.16h0.826c0.219-0.643 0.569-1.332 1.051-2.067 0.483-0.733 0.929-1.129 1.337-1.186 0.226-0.028 0.504-0.053 0.835-0.074s0.617-0.032 0.856-0.032h0.497v11.898c0 0.261-0.046 0.486-0.138 0.677s-0.275 0.342-0.551 0.456c-0.135 0.057-0.387 0.104-0.757 0.143s-0.659 0.068-0.864 0.090v0.826h8.38v-0.826c-0.241-0.028-0.532-0.076-0.874-0.143-0.343-0.066-0.596-0.133-0.758-0.195-0.269-0.113-0.448-0.267-0.54-0.461-0.092-0.193-0.138-0.418-0.138-0.672l0-11.791h0.497c0.24 0 0.525 0.011 0.856 0.032s0.609 0.046 0.835 0.074c0.409 0.056 0.854 0.452 1.337 1.186 0.483 0.735 0.833 1.424 1.052 2.067h0.826l0-4.302h-14.567v4.301zM27.294-0.001h-22.964c-2.629 0-4.465 1.836-4.465 4.465v23.070c0 2.629 1.836 4.465 4.465 4.465h22.964c2.629 0 4.465-1.836 4.465-4.465l-0-23.070c0-2.628-1.836-4.465-4.465-4.465zM29.845 27.534c0 1.574-0.978 2.551-2.551 2.551h-22.964c-1.574 0-2.551-0.978-2.551-2.551l0-23.070c0-1.573 0.978-2.551 2.551-2.551h22.964c1.574 0 2.551 0.978 2.551 2.551l-0 23.070z" fill="#000000"></path>
</svg>
