<?xml version="1.0" encoding="utf-8"?>
<!-- Generator: Adobe Illustrator 18.0.0, SVG Export Plug-In . SVG Version: 6.00 Build 0)  -->
<!DOCTYPE svg PUBLIC "-//W3C//DTD SVG 1.1 Tiny//EN" "http://www.w3.org/Graphics/SVG/1.1/DTD/svg11-tiny.dtd">
<svg version="1.1" baseProfile="tiny" id="Layer_1" xmlns="http://www.w3.org/2000/svg" xmlns:xlink="http://www.w3.org/1999/xlink"
	 x="0px" y="0px" viewBox="0 0 64 64" xml:space="preserve">
<path d="M54.1,4H51h-1H37c-0.6-2-2.6-3.9-5-3.9c-2.4,0-4.5,1.9-5,3.9H14h-1H9.8C7.8,4,6,5.6,6,7.6v52.7c0,2,1.8,3.7,3.8,3.7h44.3
	c2,0,3.9-1.6,3.9-3.7V7.6C58,5.6,56.1,4,54.1,4z M15,6h13.6l0.1-0.9c0.2-1.7,1.6-3.2,3.3-3.2c1.7,0,3.2,1.4,3.3,3.1l0.1,1H49v5.2
	c0,1-1,1.8-2,1.8H16.9c-1,0-1.9-0.8-1.9-1.8V6z M56,60.3c0,1-0.9,1.7-1.9,1.7H9.8c-1,0-1.8-0.7-1.8-1.7V7.6C8,6.6,8.8,6,9.8,6H13
	v5.2c0,2,1.9,3.8,3.9,3.8H47c2,0,4-1.7,4-3.8V6h3.1c1,0,1.9,0.6,1.9,1.6V60.3z"/>
</svg>
