<?xml version="1.0" encoding="utf-8"?>
<!-- Generator: Adobe Illustrator 18.1.0, SVG Export Plug-In . SVG Version: 6.00 Build 0)  -->
<svg version="1.1" id="Layer_1" xmlns="http://www.w3.org/2000/svg" xmlns:xlink="http://www.w3.org/1999/xlink" x="0px" y="0px"
	 viewBox="0 0 404.8 444.9" enable-background="new 0 0 404.8 444.9" xml:space="preserve">
<path fill="#070707" d="M385.7,10.8C378.7,4,293.9,0,203.3,0c-0.3,0-0.6,0-0.9,0c-0.3,0-0.6,0-0.9,0C110.9,0,26.1,4,19.1,10.8
	c0,0-34.1,30.5-11.2,53.4l115.2,117.4c9,11.2,20,37.6,22.2,53.2c0,0,1.1,4.5,3.1,12l20.1,138.6c1.3,9.4,51,55.4,51,55.4
	c6.6,4.4,15.6,8.8,17.8-6.6l22.2-199.4c2.2-15.6,13.2-42,22.2-53.2L396.9,64.2C419.8,41.3,385.7,10.8,385.7,10.8z M372.9,35.4
	c-61.2,27.9-110,40.3-170.5,40.4C141.9,75.7,93.1,63.3,32,35.4c0,0-8.6-5.7,0.4-8c19.4-3.8,79.8-7.4,169.2-7.4c0.3,0,0.6,0,0.9,0
	c0.3,0,0.6,0,0.9,0c89.4,0,149.8,3.6,169.2,7.4C381.5,29.7,372.9,35.4,372.9,35.4z"/>
</svg>
