<?xml version="1.0" encoding="utf-8"?>
<!-- Generator: Adobe Illustrator 18.0.0, SVG Export Plug-In . SVG Version: 6.00 Build 0)  -->
<!DOCTYPE svg PUBLIC "-//W3C//DTD SVG 1.1 Tiny//EN" "http://www.w3.org/Graphics/SVG/1.1/DTD/svg11-tiny.dtd">
<svg version="1.1" baseProfile="tiny" id="Layer_1" xmlns="http://www.w3.org/2000/svg" xmlns:xlink="http://www.w3.org/1999/xlink"
	 x="0px" y="0px" viewBox="0 0 64 64" xml:space="preserve">
<path d="M59.1,17H58v-2.4c0-2.3-2.2-4.6-4.5-4.6H35.4c-0.3,0-1.3-0.1-1.6-2c-0.6-3.9-3.6-4-4-4c0,0,0,0,0,0H6.1C3.8,4,2,6,2,8.4
	l0,45.7c0,0.1-0.2,2.7,1.4,4.5c0.9,1,2.2,1.5,3.7,1.5H8h2h49.1c2.4,0,3.9-2.4,3.9-4.7V20.9C63,18.5,61.5,17,59.1,17z M8,58H7.1
	c-1,0-1.7-0.3-2.2-0.8c-1-1.1-0.9-3-0.9-3V8.4C4,7.1,4.9,6,6.1,6h23.7c0.4,0,1.7,0.2,2,2.3C32.3,11,34,12,35.5,12c0,0,0,0,0,0h18
	c1.2,0,2.5,1.4,2.5,2.6V17H11.8c-1.4,0-2.5,0.4-3.2,1.3c-0.8,1-0.7,2.3-0.6,2.7V58z M61,55.3c0,1.3-0.7,2.7-1.9,2.7H10V20.9
	c0-1.3,0.6-1.9,1.8-1.9H58h1.1c1.3,0,1.9,0.6,1.9,1.9V55.3z"/>
</svg>
